{
  "leiApp": {
    "GleifImportStatus": {
      "null": "",
      "SCHEDULED": "SCHEDULED",
      "DOWNLOADING": "DOWNLOADING",
      "DECOMPRESSING": "DECOMPRESSING",
      "LOADING": "LOADING",
      "MERGING": "MERGING",
      "INDEXING": "INDEXING",
      "DONE": "DONE",
      "ERROR": "ERROR"
    }
  }
}
