{
  "leiApp": {
    "gleifImport": {
      "home": {
        "title": "GLEIF data import",
        "createLabel": "Create a new GLEIF data import schedule",
        "createOrEditLabel": "Create or edit a GLEIF data import schedule",
        "search": "Search for GLEIF data import entries"
      },
      "created": "A new GLEIF data import schedule is created with identifier {{ param }}",
      "updated": "A GLEIF data import schedule is updated with identifier {{ param }}",
      "deleted": "A GLEIF data import entry is deleted with identifier {{ param }}",
      "delete": {
        "question": "Are you sure you want to delete GLEIF data import entry {{ id }}?"
      },
      "detail": {
        "title": "GLEIF data import schedule"
      },
      "dataType": "Type",
      "url": "URL",
      "version": "Version",
      "importType": "Import",
      "status": "Status",
      "details": "Details"
    }
  }
}
