{
  "leiApp": {
    "leiData": {
      "messages": {
        "validate": {
          "lei": {
            "required": "Legal Entity Identifier is required for both save and submission."
          },
          "legalNameValue": {
            "required": "Legal Name is required for both save and submission."
          },
          "entityLegalFormCode": {
            "required": "Entity Legal Form Code is required."
          },
          "entityStatus": {
            "required": "Entity Status is required."
          },
          "firstAddressLine": {
            "required": "First Address Line is required."
          },
          "city": {
            "required": "City is required."
          },
          "country": {
            "required": "Country is required."
          },
          "headquartersFirstAddressLine": {
            "required": "Headquarters First Address Line is required."
          },
          "headquartersCity": {
            "required": "Headquarters City is required."
          },
          "headquartersCountry": {
            "required": "Headquarters Country is required."
          },
          "registrationStatus": {
            "required": "Registration Status is required."
          },
          "managingLOU": {
            "required": "Managing LOU is required."
          },
          "successorLEI": {
            "required": "Successor LEI is required."
          },
          "successorEntityName": {
            "required": "Successor Entity Name is required."
          },
          "associatedLEI": {
            "required": "Associated LEI is required."
          },
          "associatedEntityNameValue": {
            "required": "Associated Entity NameValue is required."
          },
          "associatedEntityNameLang": {
            "required": "Associated Entity Name Lang is required."
          },
          "associatedEntityType": {
            "required": "Associated Entity Type is required."
          },
          "entityNameType": {
            "required": "Entity Name Type is required."
          },
          "transliteratedEntityNameType": {
            "required": "Transliterated Entity Name Type is required."
          },
          "fileContent": {
            "required": "File Content is required."
          },
          "recordCount": {
            "required": "Record Count is required."
          },
          "addressType": {
            "required": "Address Type is required."
          },
          "transliteratedAddressType": {
            "required": "Transliterated Address Type is required."
          },
          "registrationAuthorityID": {
            "required": "Registration Authority ID is required."
          },
          "validationAuthorityID": {
            "required": "Validation Authority ID is required."
          },
          "parentLei": {
            "documents": "Please enclose document(s) stating that the Parent-Child relationship exists (consolidated financial statements, regulatory filings, Contracts, or other documents supporting the said relationship)\n                                                   "
          }
        }
      },
      "home": {
        "title": "Lei Data",
        "createLabel": "Create a new Lei Data",
        "createOrEditLabel": "Create or edit a Lei Data",
        "search": "Search for Lei Data"
      },
      "created": "A new Lei Data is created with identifier {{ param }}",
      "updated": "A Lei Data is updated with identifier {{ param }}",
      "deleted": "A Lei Data is deleted with identifier {{ param }}",
      "delete": {
        "question": "Are you sure you want to delete Lei Data {{ id }}?"
      },
      "detail": {
        "title": "Lei Data"
      },
      "legalNameValue": "Legal Name",
      "legalNameLang": "Legal Name Lang",
      "associatedEntityNameValue": "Associated Entity Name",
      "associatedEntityNameLang": "Associated Entity Name Lang",
      "lei": "Legal Entity Identifier",
      "entityLegalFormCode": "Entity Legal Form Code",
      "otherLegalForm": "Other Legal Form",
      "firstAddressLine": "First Address Line",
      "addressNumber": "Address Number",
      "addressNumberWithinBuilding": "Address Number Within Building",
      "mailRouting": "Mail Routing",
      "additionalAddressLine": "Additional Address Line",
      "city": "City",
      "region": "Region",
      "country": "Country",
      "postalCode": "Postal Code",
      "lang": "Lang",
      "headquartersFirstAddressLine": "Headquarters First Address Line",
      "headquartersAddressNumber": "Headquarters Address Number",
      "headquartersAddressNumberWithinBuilding": "Headquarters Address Number Within Building",
      "headquartersMailRouting": "Headquarters Mail Routing",
      "headquartersAdditionalAddressLine": "Headquarters Additional Address Line",
      "headquartersCity": "Headquarters City",
      "headquartersRegion": "Headquarters Region",
      "headquartersCountry": "Headquarters Country",
      "headquartersPostalCode": "Headquarters Postal Code",
      "headquartersLang": "Headquarters Lang",
      "registrationAuthorityID": "Registration Authority ID",
      "otherRegistrationAuthorityID": "Other Registration Authority ID",
      "registrationAuthorityEntityID": "Registration Authority Entity ID",
      "legalJurisdiction": "Legal Jurisdiction",
      "contentDate": "Content Date",
      "fileContent": "File Content",
      "originator": "Originator",
      "recordCount": "Record Count",
      "addressType": "Address Type",
      "associatedLEI": "Associated LEI",
      "associatedEntityType": "Associated Entity Type",
      "entityCategoryType": "Entity Category Type",
      "entityExpirationReason": "Entity Expiration Reason",
      "entityNameType": "Entity Name Type",
      "entityStatus": "Entity Status",
      "registrationStatus": "Registration Status",
      "managingLOU": "Managing LOU",
      "initialRegistrationDate": "Initial Registration Date",
      "lastUpdateDate": "Last Update Date",
      "nextRenewalDate": "Next Renewal Date",
      "successorLEI": "Successor LEI",
      "successorEntityNameValue": "Successor Entity Name",
      "successorEntityNameLang": "Successor Entity Name Language",
      "transliteratedAddressFirstAddressLine": "Transliterated Address First Address Line",
      "transliteratedAddressAddressNumber": "Transliterated Address Address Number",
      "transliteratedAddressAddressNumberWithinBuilding": "Transliterated Address Address Number Within Building",
      "transliteratedAddressMailRouting": "Transliterated Address Mail Routing",
      "transliteratedAddressCity": "Transliterated Address City",
      "transliteratedAddressRegion": "Transliterated Address Region",
      "transliteratedAddressCountry": "Transliterated Address Country",
      "transliteratedAddressPostalCode": "Transliterated Address Postal Code",
      "transliteratedAddressLang": "Transliterated Address Lang",
      "transliteratedAddressType": "Transliterated Address Type",
      "transliteratedEntityNameType": "Transliterated Entity Name Type",
      "transliteratedNameValue": "Transliterated Name",
      "transliteratedNameLang": "Transliterated Name Lang",
      "validationAuthorityID": "Validation Authority ID",
      "otherValidationAuthorityID": "Other Validation Authority ID",
      "validationAuthorityEntityID": "Validation Authority Entity ID",
      "validationSources": "Validation Sources"
    }
  }
}
